/home/trambaud/openclassrooms/bibliothequedenice/model/src/main/java/fr/villedenice/bibliotheque/model/Borrow.java
/home/trambaud/openclassrooms/bibliothequedenice/model/src/main/java/fr/villedenice/bibliotheque/model/Work.java
/home/trambaud/openclassrooms/bibliothequedenice/model/src/main/java/fr/villedenice/bibliotheque/model/Library.java
/home/trambaud/openclassrooms/bibliothequedenice/model/src/main/java/fr/villedenice/bibliotheque/model/Librarian.java
/home/trambaud/openclassrooms/bibliothequedenice/model/src/main/java/fr/villedenice/bibliotheque/model/BookType.java
/home/trambaud/openclassrooms/bibliothequedenice/model/src/main/java/fr/villedenice/bibliotheque/model/Book.java
/home/trambaud/openclassrooms/bibliothequedenice/model/src/main/java/fr/villedenice/bibliotheque/model/Customer.java
